…
``` r
pols
```

    ## # A tibble: 822 x 9
    ##     year month gov_gop sen_gop rep_gop gov_dem sen_dem rep_dem president
    ##    <dbl> <chr>   <dbl>   <dbl>   <dbl>   <dbl>   <dbl>   <dbl> <chr>    
    ##  1  1947 Jan        23      51     253      23      45     198 dem      
    ##  2  1947 Feb        23      51     253      23      45     198 dem      
    ##  3  1947 Mar        23      51     253      23      45     198 dem      
    ##  4  1947 Apr        23      51     253      23      45     198 dem      
    ##  5  1947 May        23      51     253      23      45     198 dem      
    ##  6  1947 Jun        23      51     253      23      45     198 dem      
    ##  7  1947 Jul        23      51     253      23      45     198 dem      
    ##  8  1947 Aug        23      51     253      23      45     198 dem      
    ##  9  1947 Sep        23      51     253      23      45     198 dem      
    ## 10  1947 Oct        23      51     253      23      45     198 dem      
    ## # … with 812 more rows
…
    ## Parsed with column specification:
    ## cols(
    ##   date = col_character(),
    ##   close = col_double()
    ## )

``` r
snp
```

    ## # A tibble: 787 x 3
    ##     year month close
    ##    <dbl> <chr> <dbl>
    ##  1  1950 Jan    17.0
    ##  2  1950 Feb    17.2
    ##  3  1950 Mar    17.3
    ##  4  1950 Apr    18.0
    ##  5  1950 May    18.8
    ##  6  1950 Jun    17.7
    ##  7  1950 Jul    17.8
    ##  8  1950 Aug    18.4
    ##  9  1950 Sep    19.5
    ## 10  1950 Oct    19.5
    ## # … with 777 more rows
…
``` r
unemp
```

    ## # A tibble: 816 x 3
    ##     year month unemp_rate
    ##    <dbl> <chr>      <dbl>
    ##  1  1948 Jan          3.4
    ##  2  1948 Feb          3.8
    ##  3  1948 Mar          4  
    ##  4  1948 Apr          3.9
    ##  5  1948 May          3.5
    ##  6  1948 Jun          3.6
    ##  7  1948 Jul          3.6
    ##  8  1948 Aug          3.9
    ##  9  1948 Sep          3.8
    ## 10  1948 Oct          3.7
    ## # … with 806 more rows
…
